%YAML 1.1
%TAG !u! tag:unity3d.com,2011:
--- !u!1 &5348471956553235524
GameObject:
  m_ObjectHideFlags: 0
  m_CorrespondingSourceObject: {fileID: 0}
  m_PrefabInstance: {fileID: 0}
  m_PrefabAsset: {fileID: 0}
  serializedVersion: 6
  m_Component:
  - component: {fileID: 5348471956553235546}
  - component: {fileID: 5348471956553235547}
  - component: {fileID: 997625872}
  m_Layer: 0
  m_Name: Meditator
  m_TagString: Untagged
  m_Icon: {fileID: 0}
  m_NavMeshLayer: 0
  m_StaticEditorFlags: 0
  m_IsActive: 1
--- !u!4 &5348471956553235546
Transform:
  m_ObjectHideFlags: 0
  m_CorrespondingSourceObject: {fileID: 0}
  m_PrefabInstance: {fileID: 0}
  m_PrefabAsset: {fileID: 0}
  m_GameObject: {fileID: 5348471956553235524}
  m_LocalRotation: {x: 0, y: 0, z: 0, w: 1}
  m_LocalPosition: {x: -0.05011773, y: -1.8903111, z: 0}
  m_LocalScale: {x: 1, y: 1, z: 1}
  m_Children:
  - {fileID: 5348471956272642294}
  m_Father: {fileID: 0}
  m_RootOrder: 0
  m_LocalEulerAnglesHint: {x: 0, y: 0, z: 0}
--- !u!212 &5348471956553235547
SpriteRenderer:
  m_ObjectHideFlags: 0
  m_CorrespondingSourceObject: {fileID: 0}
  m_PrefabInstance: {fileID: 0}
  m_PrefabAsset: {fileID: 0}
  m_GameObject: {fileID: 5348471956553235524}
  m_Enabled: 1
  m_CastShadows: 0
  m_ReceiveShadows: 0
  m_DynamicOccludee: 1
  m_MotionVectors: 1
  m_LightProbeUsage: 1
  m_ReflectionProbeUsage: 1
  m_RayTracingMode: 0
  m_RayTraceProcedural: 0
  m_RenderingLayerMask: 1
  m_RendererPriority: 0
  m_Materials:
  - {fileID: 10754, guid: 0000000000000000f000000000000000, type: 0}
  m_StaticBatchInfo:
    firstSubMesh: 0
    subMeshCount: 0
  m_StaticBatchRoot: {fileID: 0}
  m_ProbeAnchor: {fileID: 0}
  m_LightProbeVolumeOverride: {fileID: 0}
  m_ScaleInLightmap: 1
  m_ReceiveGI: 1
  m_PreserveUVs: 0
  m_IgnoreNormalsForChartDetection: 0
  m_ImportantGI: 0
  m_StitchLightmapSeams: 1
  m_SelectedEditorRenderState: 0
  m_MinimumChartSize: 4
  m_AutoUVMaxDistance: 0.5
  m_AutoUVMaxAngle: 89
  m_LightmapParameters: {fileID: 0}
  m_SortingLayerID: 0
  m_SortingLayer: 0
  m_SortingOrder: -2
  m_Sprite: {fileID: 21300000, guid: 5d082df62564cdd4bb1b14679d91e544, type: 3}
  m_Color: {r: 1, g: 1, b: 1, a: 1}
  m_FlipX: 0
  m_FlipY: 0
  m_DrawMode: 0
  m_Size: {x: 4.56, y: 3.97}
  m_AdaptiveModeThreshold: 0.5
  m_SpriteTileMode: 0
  m_WasSpriteAssigned: 1
  m_MaskInteraction: 0
  m_SpriteSortPoint: 0
--- !u!50 &997625872
Rigidbody2D:
  serializedVersion: 4
  m_ObjectHideFlags: 0
  m_CorrespondingSourceObject: {fileID: 0}
  m_PrefabInstance: {fileID: 0}
  m_PrefabAsset: {fileID: 0}
  m_GameObject: {fileID: 5348471956553235524}
  m_BodyType: 1
  m_Simulated: 1
  m_UseFullKinematicContacts: 0
  m_UseAutoMass: 0
  m_Mass: 1
  m_LinearDrag: 0
  m_AngularDrag: 0.05
  m_GravityScale: 1
  m_Material: {fileID: 0}
  m_Interpolate: 0
  m_SleepingMode: 1
  m_CollisionDetection: 0
  m_Constraints: 0
--- !u!1001 &6156368603158700647
PrefabInstance:
  m_ObjectHideFlags: 0
  serializedVersion: 2
  m_Modification:
    m_TransformParent: {fileID: 5348471956553235546}
    m_Modifications:
    - target: {fileID: 2258069539656866448, guid: 5d4d722d3ce5e414abf921ae7c2ab3a3, type: 3}
      propertyPath: m_Name
      value: Target
      objectReference: {fileID: 0}
    - target: {fileID: 2258069539656866449, guid: 5d4d722d3ce5e414abf921ae7c2ab3a3, type: 3}
      propertyPath: m_RootOrder
      value: 0
      objectReference: {fileID: 0}
    - target: {fileID: 2258069539656866449, guid: 5d4d722d3ce5e414abf921ae7c2ab3a3, type: 3}
      propertyPath: m_LocalPosition.x
      value: 0.027
      objectReference: {fileID: 0}
    - target: {fileID: 2258069539656866449, guid: 5d4d722d3ce5e414abf921ae7c2ab3a3, type: 3}
      propertyPath: m_LocalPosition.y
      value: 0.73
      objectReference: {fileID: 0}
    - target: {fileID: 2258069539656866449, guid: 5d4d722d3ce5e414abf921ae7c2ab3a3, type: 3}
      propertyPath: m_LocalPosition.z
      value: 0
      objectReference: {fileID: 0}
    - target: {fileID: 2258069539656866449, guid: 5d4d722d3ce5e414abf921ae7c2ab3a3, type: 3}
      propertyPath: m_LocalRotation.w
      value: 1
      objectReference: {fileID: 0}
    - target: {fileID: 2258069539656866449, guid: 5d4d722d3ce5e414abf921ae7c2ab3a3, type: 3}
      propertyPath: m_LocalRotation.x
      value: 0
      objectReference: {fileID: 0}
    - target: {fileID: 2258069539656866449, guid: 5d4d722d3ce5e414abf921ae7c2ab3a3, type: 3}
      propertyPath: m_LocalRotation.y
      value: 0
      objectReference: {fileID: 0}
    - target: {fileID: 2258069539656866449, guid: 5d4d722d3ce5e414abf921ae7c2ab3a3, type: 3}
      propertyPath: m_LocalRotation.z
      value: 0
      objectReference: {fileID: 0}
    - target: {fileID: 2258069539656866449, guid: 5d4d722d3ce5e414abf921ae7c2ab3a3, type: 3}
      propertyPath: m_LocalEulerAnglesHint.x
      value: 0
      objectReference: {fileID: 0}
    - target: {fileID: 2258069539656866449, guid: 5d4d722d3ce5e414abf921ae7c2ab3a3, type: 3}
      propertyPath: m_LocalEulerAnglesHint.y
      value: 0
      objectReference: {fileID: 0}
    - target: {fileID: 2258069539656866449, guid: 5d4d722d3ce5e414abf921ae7c2ab3a3, type: 3}
      propertyPath: m_LocalEulerAnglesHint.z
      value: 0
      objectReference: {fileID: 0}
    - target: {fileID: 2258069539656866450, guid: 5d4d722d3ce5e414abf921ae7c2ab3a3, type: 3}
      propertyPath: m_Size.y
      value: 2.0497615
      objectReference: {fileID: 0}
    - target: {fileID: 2258069539656866450, guid: 5d4d722d3ce5e414abf921ae7c2ab3a3, type: 3}
      propertyPath: m_Offset.y
      value: 0.62493443
      objectReference: {fileID: 0}
    - target: {fileID: 2258069539656866450, guid: 5d4d722d3ce5e414abf921ae7c2ab3a3, type: 3}
      propertyPath: m_IsTrigger
      value: 1
      objectReference: {fileID: 0}
    m_RemovedComponents: []
  m_SourcePrefab: {fileID: 100100000, guid: 5d4d722d3ce5e414abf921ae7c2ab3a3, type: 3}
--- !u!4 &5348471956272642294 stripped
Transform:
  m_CorrespondingSourceObject: {fileID: 2258069539656866449, guid: 5d4d722d3ce5e414abf921ae7c2ab3a3, type: 3}
  m_PrefabInstance: {fileID: 6156368603158700647}
  m_PrefabAsset: {fileID: 0}
